[
    {
        "EAFAHJNKEDB": 1,
        "OOIFOJFOCKF": "ART/UI/Atlas/Activity/CoinCollect/UI_Activity_CoinCollect_Level_1_1",
        "MPNJFOKFMNG": 3228974272
    },
    {
        "EAFAHJNKEDB": 2,
        "OOIFOJFOCKF": "ART/UI/Atlas/Activity/CoinCollect/UI_Activity_CoinCollect_Level_1_2",
        "MPNJFOKFMNG": 3581235224
    },
    {
        "EAFAHJNKEDB": 3,
        "OOIFOJFOCKF": "ART/UI/Atlas/Activity/CoinCollect/UI_Activity_CoinCollect_Level_1_3",
        "MPNJFOKFMNG": 1239927400
    },
    {
        "EAFAHJNKEDB": 4,
        "OOIFOJFOCKF": "ART/UI/Atlas/Activity/CoinCollect/UI_Activity_CoinCollect_Level_2_1",
        "MPNJFOKFMNG": 3964442384
    },
    {
        "EAFAHJNKEDB": 5,
        "OOIFOJFOCKF": "ART/UI/Atlas/Activity/CoinCollect/UI_Activity_CoinCollect_Level_2_2",
        "MPNJFOKFMNG": 3654600464
    },
    {
        "EAFAHJNKEDB": 6,
        "OOIFOJFOCKF": "ART/UI/Atlas/Activity/CoinCollect/UI_Activity_CoinCollect_Level_2_3",
        "MPNJFOKFMNG": 373643992
    },
    {
        "EAFAHJNKEDB": 7,
        "OOIFOJFOCKF": "ART/UI/Atlas/Activity/CoinCollect/UI_Activity_CoinCollect_Level_2_4",
        "MPNJFOKFMNG": 3704822832
    },
    {
        "EAFAHJNKEDB": 8,
        "OOIFOJFOCKF": "ART/UI/Atlas/Activity/CoinCollect/UI_Activity_CoinCollect_Level_3_1",
        "MPNJFOKFMNG": 296810168
    },
    {
        "EAFAHJNKEDB": 9,
        "OOIFOJFOCKF": "ART/UI/Atlas/Activity/CoinCollect/UI_Activity_CoinCollect_Level_3_2",
        "MPNJFOKFMNG": 1754957688
    },
    {
        "EAFAHJNKEDB": 10,
        "OOIFOJFOCKF": "ART/UI/Atlas/Activity/CoinCollect/UI_Activity_CoinCollect_Level_3_3",
        "MPNJFOKFMNG": 3183908568
    },
    {
        "EAFAHJNKEDB": 11,
        "OOIFOJFOCKF": "ART/UI/Atlas/Activity/CoinCollect/UI_Activity_CoinCollect_Level_4_1",
        "MPNJFOKFMNG": 2138987088
    },
    {
        "EAFAHJNKEDB": 12,
        "OOIFOJFOCKF": "ART/UI/Atlas/Activity/CoinCollect/UI_Activity_CoinCollect_Level_4_2",
        "MPNJFOKFMNG": 3724928992
    },
    {
        "EAFAHJNKEDB": 13,
        "OOIFOJFOCKF": "ART/UI/Atlas/Activity/CoinCollect/UI_Activity_CoinCollect_Level_4_3",
        "MPNJFOKFMNG": 3582023512
    },
    {
        "EAFAHJNKEDB": 14,
        "OOIFOJFOCKF": "ART/UI/Atlas/Activity/CoinCollect/UI_Activity_CoinCollect_Level_5_1",
        "MPNJFOKFMNG": 3467855632
    },
    {
        "EAFAHJNKEDB": 15,
        "OOIFOJFOCKF": "ART/UI/Atlas/Activity/CoinCollect/UI_Activity_CoinCollect_Level_5_2",
        "MPNJFOKFMNG": 1060144000
    }
]