[
    {
        "id": 1,
        "KEMBEMMIJNB": 171071907
    },
    {
        "id": 2,
        "KEMBEMMIJNB": 1061035051
    },
    {
        "id": 3,
        "unlockCond": "DUEL_LEVEL",
        "DBELNLMBANE": 3,
        "KEMBEMMIJNB": 1773509819
    },
    {
        "id": 4,
        "unlockCond": "DUEL_LEVEL",
        "DBELNLMBANE": 3,
        "KEMBEMMIJNB": 3642687843
    },
    {
        "id": 5,
        "unlockCond": "DUEL_LEVEL",
        "DBELNLMBANE": 5,
        "KEMBEMMIJNB": 1489486907
    },
    {
        "id": 6,
        "unlockCond": "DUEL_LEVEL",
        "DBELNLMBANE": 5,
        "KEMBEMMIJNB": 665882659
    },
    {
        "id": 7,
        "unlockCond": "DUEL_LEVEL",
        "DBELNLMBANE": 7,
        "KEMBEMMIJNB": 2041915275
    },
    {
        "id": 8,
        "unlockCond": "DUEL_LEVEL",
        "DBELNLMBANE": 7,
        "KEMBEMMIJNB": 1117366971
    },
    {
        "id": 9,
        "unlockCond": "DUEL_LEVEL",
        "DBELNLMBANE": 10,
        "KEMBEMMIJNB": 1051809523
    },
    {
        "id": 10,
        "unlockCond": "DUEL_LEVEL",
        "DBELNLMBANE": 10,
        "KEMBEMMIJNB": 3896187699
    }
]