[
    {
        "itemId": 339500,
        "nameTextMapHash": 384357012,
        "descTextMapHash": 3962735882,
        "KEMBEMMIJNB": 1908811578,
        "order": 1,
        "JFDMGHDNJCM": 2862788099280328496,
        "KACLCHCDMHP": "ART/System/GCG/Required/Gcg_Proxy/Gcg_Proxy_Table_01",
        "DPIFMABGBBI": 1,
        "AFPJOPOPDJH": 2,
        "OONJDOCLJMI": [
            "Eff_UI_Gcg_Checkerboard_Glow_02"
        ],
        "KHAMBKOLPDP": [
            "Eff_UI_Gcg_Table_Mengde"
        ],
        "PDEKMLCGADM": [
            "Eff_UI_Gcg_Table_Mengde_1"
        ],
        "FPEEHLBABFJ": "ART/Effect/UI/UI/GCG/Eff_UI_Gcg_Click_Mengde",
        "IKMBALDBBII": "Data/Environment/EnviroSystemProfile/UI/ESP_UI_GcgCard",
        "NGJCFCECFLD": "State_CardGame_MengDe"
    },
    {
        "id": 101,
        "itemId": 339501,
        "nameTextMapHash": 45426028,
        "descTextMapHash": 2275741714,
        "KEMBEMMIJNB": 363252498,
        "order": 2,
        "JFDMGHDNJCM": 3237775952017223437,
        "KACLCHCDMHP": "ART/System/GCG/Required/Gcg_Proxy/Gcg_Proxy_Table_01",
        "DPIFMABGBBI": 3,
        "AFPJOPOPDJH": 4,
        "OONJDOCLJMI": [
            "Eff_UI_Gcg_Checkerboard_Glow"
        ],
        "KHAMBKOLPDP": [
            "Eff_UI_Gcg_Table_Liyue"
        ],
        "PDEKMLCGADM": [
            "Eff_UI_Gcg_Table_Liyue_1"
        ],
        "FPEEHLBABFJ": "ART/Effect/UI/UI/GCG/Eff_UI_Gcg_Click_Liyue",
        "IKMBALDBBII": "Data/Environment/EnviroSystemProfile/UI/ESP_UI_GcgCard",
        "NGJCFCECFLD": "State_CardGame_LiYue"
    },
    {
        "id": 102,
        "itemId": 339502,
        "nameTextMapHash": 2761138860,
        "descTextMapHash": 1856930906,
        "KEMBEMMIJNB": 3847898434,
        "order": 3,
        "JFDMGHDNJCM": 869199178744522539,
        "KACLCHCDMHP": "ART/System/GCG/Required/Gcg_Proxy/Gcg_Proxy_Table_01",
        "DPIFMABGBBI": 5,
        "AFPJOPOPDJH": 6,
        "OONJDOCLJMI": [
            "Eff_UI_Gcg_Checkerboard_Glow_01"
        ],
        "KHAMBKOLPDP": [
            "Eff_UI_Gcg_Table_Daoqi"
        ],
        "PDEKMLCGADM": [
            "Eff_UI_Gcg_Table_Daoqi_1"
        ],
        "FPEEHLBABFJ": "ART/Effect/UI/UI/GCG/Eff_UI_Gcg_Click_Daoqi",
        "IKMBALDBBII": "Data/Environment/EnviroSystemProfile/UI/ESP_UI_GcgCard",
        "NGJCFCECFLD": "State_CardGame_DaoQi"
    },
    {
        "id": 103,
        "itemId": 339503,
        "nameTextMapHash": 2172568444,
        "descTextMapHash": 2150118914,
        "KEMBEMMIJNB": 3393081682,
        "order": 4,
        "JFDMGHDNJCM": 2566641660547949665,
        "KACLCHCDMHP": "ART/System/GCG/Required/Gcg_Proxy/Gcg_Proxy_Table_01",
        "DPIFMABGBBI": 7,
        "AFPJOPOPDJH": 8,
        "OONJDOCLJMI": [
            "Eff_UI_Gcg_Checkerboard_Glow_03"
        ],
        "KHAMBKOLPDP": [
            "Eff_UI_Gcg_Table_Xumi"
        ],
        "PDEKMLCGADM": [
            "Eff_UI_Gcg_Table_Xumi_1"
        ],
        "FPEEHLBABFJ": "ART/Effect/UI/UI/GCG/Eff_UI_Gcg_Click_Xumi",
        "IKMBALDBBII": "Data/Environment/EnviroSystemProfile/UI/ESP_UI_GcgCard",
        "NGJCFCECFLD": "State_CardGame_XuMi"
    }
]