[
    {
        "id": 1,
        "titleTextMapHash": 2540223917,
        "descTextMapHash": 2651145183
    },
    {
        "id": 2,
        "titleTextMapHash": 2169184301,
        "descTextMapHash": 3015364695
    },
    {
        "id": 3,
        "titleTextMapHash": 1477312709,
        "descTextMapHash": 2398861135
    },
    {
        "id": 4,
        "titleTextMapHash": 600355653,
        "descTextMapHash": 3501625367
    },
    {
        "id": 5,
        "titleTextMapHash": 1584527989,
        "descTextMapHash": 1499399751
    },
    {
        "id": 6,
        "titleTextMapHash": 36129677,
        "descTextMapHash": 687529351
    },
    {
        "id": 51,
        "titleTextMapHash": 2197906253,
        "descTextMapHash": 747395831
    },
    {
        "id": 52,
        "titleTextMapHash": 4168449253,
        "descTextMapHash": 4192192535
    },
    {
        "id": 53,
        "titleTextMapHash": 424560549,
        "descTextMapHash": 2585571575
    },
    {
        "id": 100,
        "titleTextMapHash": 202787797,
        "descTextMapHash": 4024974543
    },
    {
        "id": 101,
        "titleTextMapHash": 1008216661,
        "descTextMapHash": 3734997063
    },
    {
        "id": 102,
        "titleTextMapHash": 95149485,
        "descTextMapHash": 1558679935
    },
    {
        "id": 103,
        "titleTextMapHash": 1533428269,
        "descTextMapHash": 115213951
    },
    {
        "id": 104,
        "titleTextMapHash": 3591616061,
        "descTextMapHash": 1180542095
    },
    {
        "id": 105,
        "titleTextMapHash": 967776565,
        "descTextMapHash": 333247199
    },
    {
        "id": 106,
        "titleTextMapHash": 3849457229,
        "descTextMapHash": 2040066815
    },
    {
        "id": 107,
        "titleTextMapHash": 2894582525,
        "descTextMapHash": 3255234215
    },
    {
        "id": 111,
        "titleTextMapHash": 2923150381,
        "descTextMapHash": 3743316095
    },
    {
        "id": 112,
        "titleTextMapHash": 2218108661,
        "descTextMapHash": 3943668319
    },
    {
        "id": 113,
        "titleTextMapHash": 267511717,
        "descTextMapHash": 1561225239
    },
    {
        "id": 114,
        "titleTextMapHash": 547972781,
        "descTextMapHash": 1260789135
    },
    {
        "id": 115,
        "titleTextMapHash": 2294456949,
        "descTextMapHash": 1537050423
    },
    {
        "id": 116,
        "titleTextMapHash": 1703235645,
        "descTextMapHash": 217187711
    },
    {
        "id": 117,
        "titleTextMapHash": 3524076117,
        "descTextMapHash": 912295495
    },
    {
        "id": 201,
        "titleTextMapHash": 3943200581,
        "descTextMapHash": 2790634807
    },
    {
        "id": 202,
        "titleTextMapHash": 1146722749,
        "descTextMapHash": 4096304447
    },
    {
        "id": 203,
        "titleTextMapHash": 3297024573,
        "descTextMapHash": 2728711799
    },
    {
        "id": 204,
        "titleTextMapHash": 1041897589,
        "descTextMapHash": 1020796063
    },
    {
        "id": 207,
        "titleTextMapHash": 314062045,
        "descTextMapHash": 137617567
    },
    {
        "id": 212,
        "titleTextMapHash": 3695747189,
        "descTextMapHash": 326321247
    },
    {
        "id": 213,
        "titleTextMapHash": 3020614597,
        "descTextMapHash": 2101800319
    },
    {
        "id": 217,
        "titleTextMapHash": 2815517165,
        "descTextMapHash": 175488239
    },
    {
        "id": 301,
        "titleTextMapHash": 2806814381,
        "descTextMapHash": 2737934871
    },
    {
        "id": 302,
        "titleTextMapHash": 2045088461,
        "descTextMapHash": 3170493311
    },
    {
        "id": 303,
        "titleTextMapHash": 421271837,
        "descTextMapHash": 1879721319
    },
    {
        "id": 304,
        "titleTextMapHash": 237694341,
        "descTextMapHash": 1682606583
    },
    {
        "id": 305,
        "titleTextMapHash": 2270736773,
        "descTextMapHash": 3796994879
    },
    {
        "id": 306,
        "titleTextMapHash": 2507321229,
        "descTextMapHash": 2654679959
    },
    {
        "id": 307,
        "titleTextMapHash": 3837370589,
        "descTextMapHash": 3993993575
    },
    {
        "id": 308,
        "titleTextMapHash": 4282975221,
        "descTextMapHash": 800166191
    },
    {
        "id": 309,
        "titleTextMapHash": 1323216029,
        "descTextMapHash": 119089767
    },
    {
        "id": 310,
        "titleTextMapHash": 2993732901,
        "descTextMapHash": 633947247
    },
    {
        "id": 411,
        "titleTextMapHash": 2913499221,
        "descTextMapHash": 238278447
    },
    {
        "id": 501,
        "titleTextMapHash": 3250738285,
        "descTextMapHash": 1259015823
    },
    {
        "id": 502,
        "titleTextMapHash": 2940205725,
        "descTextMapHash": 2810080567
    },
    {
        "id": 1001,
        "titleTextMapHash": 1179916925,
        "descTextMapHash": 2735067679
    },
    {
        "id": 1002,
        "titleTextMapHash": 3708262837,
        "descTextMapHash": 3129426775
    },
    {
        "id": 1003,
        "titleTextMapHash": 3614822413,
        "descTextMapHash": 2854143407
    }
]