[
    {
        "level": 1,
        "exp": 300,
        "rewardId": 4201001,
        "unlockDescTextMapHash": 3914086631
    },
    {
        "level": 2,
        "exp": 750,
        "rewardId": 4201002,
        "unlockDescTextMapHash": 2735802343
    },
    {
        "level": 3,
        "exp": 950,
        "rewardId": 4201003,
        "unlockDescTextMapHash": 1296084911,
        "JICDGHLIPIH": "GCG_LEVEL_ICON_TYPE_COPPER"
    },
    {
        "level": 4,
        "exp": 1300,
        "rewardId": 4201004,
        "unlockDescTextMapHash": 836176847,
        "JICDGHLIPIH": "GCG_LEVEL_ICON_TYPE_COPPER"
    },
    {
        "level": 5,
        "exp": 1450,
        "rewardId": 4201005,
        "unlockDescTextMapHash": 3365223879,
        "JICDGHLIPIH": "GCG_LEVEL_ICON_TYPE_SILIVER"
    },
    {
        "level": 6,
        "exp": 1600,
        "rewardId": 4201006,
        "unlockDescTextMapHash": 1500200703,
        "JICDGHLIPIH": "GCG_LEVEL_ICON_TYPE_SILIVER"
    },
    {
        "level": 7,
        "exp": 1750,
        "rewardId": 4201007,
        "unlockDescTextMapHash": 3328171463,
        "JICDGHLIPIH": "GCG_LEVEL_ICON_TYPE_GOLD"
    },
    {
        "level": 8,
        "exp": 1900,
        "rewardId": 4201008,
        "unlockDescTextMapHash": 2891890815,
        "JICDGHLIPIH": "GCG_LEVEL_ICON_TYPE_GOLD"
    },
    {
        "level": 9,
        "exp": 2450,
        "rewardId": 4201009,
        "unlockDescTextMapHash": 2394290951,
        "JICDGHLIPIH": "GCG_LEVEL_ICON_TYPE_GOLD"
    },
    {
        "level": 10,
        "rewardId": 4201010,
        "unlockDescTextMapHash": 1539790335,
        "JICDGHLIPIH": "GCG_LEVEL_ICON_TYPE_PLATINUM"
    }
]