[
    {
        "id": 1001,
        "BEOIOBLDLLI": "UI_Gcg_InSide_01",
        "titleTextMapHash": 134254614,
        "contentTextMapHash": 1474820603
    },
    {
        "id": 1002,
        "PAGNPDJKGFG": true,
        "BEOIOBLDLLI": "",
        "titleTextMapHash": 2612067318,
        "contentTextMapHash": 3528830963
    },
    {
        "id": 1003,
        "PAGNPDJKGFG": true,
        "BEOIOBLDLLI": "",
        "titleTextMapHash": 3896450814,
        "contentTextMapHash": 1584201203
    },
    {
        "id": 1004,
        "PAGNPDJKGFG": true,
        "BEOIOBLDLLI": "",
        "titleTextMapHash": 3912423126,
        "contentTextMapHash": 4000257875
    },
    {
        "id": 2001,
        "BEOIOBLDLLI": "UI_Gcg_InSide_11",
        "titleTextMapHash": 2983793054,
        "contentTextMapHash": 3396623051
    },
    {
        "id": 2002,
        "PAGNPDJKGFG": true,
        "BEOIOBLDLLI": "",
        "titleTextMapHash": 4060393782,
        "contentTextMapHash": 3938599771
    },
    {
        "id": 2003,
        "PAGNPDJKGFG": true,
        "BEOIOBLDLLI": "",
        "titleTextMapHash": 4262629446,
        "contentTextMapHash": 2481072171
    },
    {
        "id": 2004,
        "PAGNPDJKGFG": true,
        "BEOIOBLDLLI": "",
        "titleTextMapHash": 1597150950,
        "contentTextMapHash": 3086648811
    },
    {
        "id": 3001,
        "BEOIOBLDLLI": "",
        "titleTextMapHash": 1695779270,
        "contentTextMapHash": 1903707627
    },
    {
        "id": 3002,
        "PAGNPDJKGFG": true,
        "BEOIOBLDLLI": "",
        "titleTextMapHash": 373870046,
        "contentTextMapHash": 3068476779
    },
    {
        "id": 3003,
        "PAGNPDJKGFG": true,
        "BEOIOBLDLLI": "",
        "titleTextMapHash": 3839572510,
        "contentTextMapHash": 1149097907
    },
    {
        "id": 3004,
        "PAGNPDJKGFG": true,
        "BEOIOBLDLLI": "",
        "titleTextMapHash": 1726562734,
        "contentTextMapHash": 823471595
    },
    {
        "id": 3005,
        "PAGNPDJKGFG": true,
        "BEOIOBLDLLI": "",
        "titleTextMapHash": 441556350,
        "contentTextMapHash": 2190144507
    },
    {
        "id": 3006,
        "PAGNPDJKGFG": true,
        "BEOIOBLDLLI": "",
        "titleTextMapHash": 4105927326,
        "contentTextMapHash": 965224091
    },
    {
        "id": 4001,
        "PAGNPDJKGFG": true,
        "BEOIOBLDLLI": "UI_Gcg_InSide_12",
        "titleTextMapHash": 3054007182,
        "contentTextMapHash": 3437207851
    },
    {
        "id": 4002,
        "PAGNPDJKGFG": true,
        "BEOIOBLDLLI": "UI_Gcg_InSide_13",
        "titleTextMapHash": 1641861062,
        "contentTextMapHash": 1720940323
    },
    {
        "id": 5001,
        "PAGNPDJKGFG": true,
        "PIACEOBKKKB": 101,
        "BEOIOBLDLLI": "",
        "titleTextMapHash": 1184864630,
        "contentTextMapHash": 1904070275
    },
    {
        "id": 5002,
        "PAGNPDJKGFG": true,
        "PIACEOBKKKB": 102,
        "BEOIOBLDLLI": "",
        "titleTextMapHash": 2625199078,
        "contentTextMapHash": 2862340587
    },
    {
        "id": 5003,
        "PAGNPDJKGFG": true,
        "PIACEOBKKKB": 103,
        "BEOIOBLDLLI": "",
        "titleTextMapHash": 377415998,
        "contentTextMapHash": 4000931611
    },
    {
        "id": 5004,
        "PAGNPDJKGFG": true,
        "PIACEOBKKKB": 104,
        "BEOIOBLDLLI": "",
        "titleTextMapHash": 3044401462,
        "contentTextMapHash": 4044230267
    },
    {
        "id": 5005,
        "PAGNPDJKGFG": true,
        "PIACEOBKKKB": 105,
        "BEOIOBLDLLI": "",
        "titleTextMapHash": 3568586854,
        "contentTextMapHash": 2303246059
    },
    {
        "id": 5006,
        "PAGNPDJKGFG": true,
        "PIACEOBKKKB": 106,
        "BEOIOBLDLLI": "",
        "titleTextMapHash": 3097520990,
        "contentTextMapHash": 1921822475
    },
    {
        "id": 5007,
        "PAGNPDJKGFG": true,
        "PIACEOBKKKB": 107,
        "BEOIOBLDLLI": "",
        "titleTextMapHash": 2482467334,
        "contentTextMapHash": 3845338619
    },
    {
        "id": 5008,
        "PAGNPDJKGFG": true,
        "PIACEOBKKKB": 108,
        "BEOIOBLDLLI": "",
        "titleTextMapHash": 1430732974,
        "contentTextMapHash": 2606232051
    },
    {
        "id": 5009,
        "PAGNPDJKGFG": true,
        "PIACEOBKKKB": 109,
        "BEOIOBLDLLI": "",
        "titleTextMapHash": 2349711014,
        "contentTextMapHash": 1970996923
    },
    {
        "id": 5010,
        "PAGNPDJKGFG": true,
        "PIACEOBKKKB": 110,
        "BEOIOBLDLLI": "",
        "titleTextMapHash": 2668047974,
        "contentTextMapHash": 3991122459
    },
    {
        "id": 5011,
        "PAGNPDJKGFG": true,
        "PIACEOBKKKB": 111,
        "BEOIOBLDLLI": "",
        "titleTextMapHash": 3385143942,
        "contentTextMapHash": 2571490131
    },
    {
        "id": 5012,
        "PAGNPDJKGFG": true,
        "PIACEOBKKKB": 112,
        "BEOIOBLDLLI": "",
        "titleTextMapHash": 1362973894,
        "contentTextMapHash": 1519120467
    },
    {
        "id": 5013,
        "PAGNPDJKGFG": true,
        "PIACEOBKKKB": 113,
        "BEOIOBLDLLI": "",
        "titleTextMapHash": 4284814294,
        "contentTextMapHash": 184552619
    },
    {
        "id": 5014,
        "PAGNPDJKGFG": true,
        "PIACEOBKKKB": 114,
        "BEOIOBLDLLI": "",
        "titleTextMapHash": 2821593766,
        "contentTextMapHash": 1648918043
    },
    {
        "id": 5015,
        "PAGNPDJKGFG": true,
        "PIACEOBKKKB": 115,
        "BEOIOBLDLLI": "",
        "titleTextMapHash": 1516189830,
        "contentTextMapHash": 2257001179
    },
    {
        "id": 5016,
        "PAGNPDJKGFG": true,
        "PIACEOBKKKB": 116,
        "BEOIOBLDLLI": "",
        "titleTextMapHash": 1216168406,
        "contentTextMapHash": 13014131
    },
    {
        "id": 5017,
        "PAGNPDJKGFG": true,
        "PIACEOBKKKB": 117,
        "BEOIOBLDLLI": "",
        "titleTextMapHash": 2818975062,
        "contentTextMapHash": 2941336939
    },
    {
        "id": 6001,
        "PAGNPDJKGFG": true,
        "BEOIOBLDLLI": "",
        "titleTextMapHash": 3703894262,
        "contentTextMapHash": 3950524299
    },
    {
        "id": 6002,
        "PAGNPDJKGFG": true,
        "BEOIOBLDLLI": "",
        "titleTextMapHash": 1588063806,
        "contentTextMapHash": 3858954603
    },
    {
        "id": 6003,
        "PAGNPDJKGFG": true,
        "BEOIOBLDLLI": "",
        "titleTextMapHash": 1584118606,
        "contentTextMapHash": 3729142715
    },
    {
        "id": 6004,
        "PAGNPDJKGFG": true,
        "BEOIOBLDLLI": "",
        "titleTextMapHash": 848526310,
        "contentTextMapHash": 2298889979
    },
    {
        "id": 6005,
        "PAGNPDJKGFG": true,
        "BEOIOBLDLLI": "",
        "titleTextMapHash": 1640523006,
        "contentTextMapHash": 1535022627
    },
    {
        "id": 6006,
        "PAGNPDJKGFG": true,
        "BEOIOBLDLLI": "",
        "titleTextMapHash": 805240742,
        "contentTextMapHash": 1796093995
    },
    {
        "id": 6007,
        "PAGNPDJKGFG": true,
        "BEOIOBLDLLI": "",
        "titleTextMapHash": 4093968838,
        "contentTextMapHash": 2319247451
    },
    {
        "id": 7001,
        "BEOIOBLDLLI": "UI_Gcg_InSide_14",
        "titleTextMapHash": 850467646,
        "contentTextMapHash": 3576315299
    },
    {
        "id": 7002,
        "PAGNPDJKGFG": true,
        "BEOIOBLDLLI": "",
        "titleTextMapHash": 2323111278,
        "contentTextMapHash": 26915731
    },
    {
        "id": 7003,
        "PAGNPDJKGFG": true,
        "BEOIOBLDLLI": "",
        "titleTextMapHash": 255675014,
        "contentTextMapHash": 2089759539
    },
    {
        "id": 7004,
        "PAGNPDJKGFG": true,
        "BEOIOBLDLLI": "",
        "titleTextMapHash": 741663206,
        "contentTextMapHash": 3686205123
    },
    {
        "id": 7005,
        "PAGNPDJKGFG": true,
        "BEOIOBLDLLI": "",
        "titleTextMapHash": 1044156438,
        "contentTextMapHash": 97729619
    },
    {
        "id": 7006,
        "PAGNPDJKGFG": true,
        "BEOIOBLDLLI": "",
        "titleTextMapHash": 1222038158,
        "contentTextMapHash": 1450823707
    },
    {
        "id": 7007,
        "PAGNPDJKGFG": true,
        "BEOIOBLDLLI": "",
        "titleTextMapHash": 3167605990,
        "contentTextMapHash": 631920739
    }
]