[
    {
        "id": 1,
        "titleTextMapHash": 3164381188,
        "detailIdList": [
            1001,
            1002,
            1003,
            1004
        ]
    },
    {
        "id": 2,
        "titleTextMapHash": 2547385652,
        "detailIdList": [
            2001,
            2002,
            2003,
            2004
        ]
    },
    {
        "id": 3,
        "titleTextMapHash": 4112781708,
        "detailIdList": [
            3001,
            3002,
            3003,
            3004,
            3005,
            3006
        ]
    },
    {
        "id": 4,
        "titleTextMapHash": 3693499092,
        "detailIdList": [
            7001,
            7002,
            7003,
            7004,
            7005,
            7006,
            7007
        ]
    },
    {
        "id": 5,
        "titleTextMapHash": 4162165836,
        "detailIdList": [
            4001,
            4002
        ]
    },
    {
        "id": 6,
        "titleTextMapHash": 3729206716,
        "detailIdList": [
            5001,
            5002,
            5003,
            5004,
            5005,
            5006,
            5007,
            5008,
            5009,
            5010,
            5011,
            5012,
            5013,
            5014,
            5015,
            5016,
            5017
        ]
    },
    {
        "id": 7,
        "titleTextMapHash": 977486172,
        "detailIdList": [
            6001,
            6002,
            6003,
            6004,
            6005,
            6006,
            6007
        ]
    }
]