[
    {
        "CIEAGKLCHJK": 1,
        "OMAPHBJEPNL": 4,
        "PPECGHPKAPM": 1,
        "FMNCGBOGHPH": [
            {
                "CHJLNJAMCJA": [
                    1,
                    0,
                    0,
                    0
                ],
                "weight": 20
            },
            {
                "CHJLNJAMCJA": [
                    1,
                    0,
                    0,
                    0
                ],
                "weight": 20
            },
            {
                "CHJLNJAMCJA": []
            }
        ]
    },
    {
        "CIEAGKLCHJK": 4,
        "OMAPHBJEPNL": 1,
        "PPECGHPKAPM": 4,
        "FMNCGBOGHPH": [
            {
                "CHJLNJAMCJA": [
                    1
                ],
                "weight": 20
            },
            {
                "CHJLNJAMCJA": []
            },
            {
                "CHJLNJAMCJA": []
            }
        ]
    }
]