[
    {
        "id": 3,
        "npcId": 1437,
        "levelId": 11001,
        "levelTitleTextMapHash": 4098946015,
        "LCDFHLPBNFF": 1263967825,
        "talkId": 6143709
    },
    {
        "id": 15,
        "npcId": 1605,
        "levelId": 11002,
        "levelTitleTextMapHash": 2177705327,
        "LCDFHLPBNFF": 2375834089,
        "talkId": 6160507
    },
    {
        "id": 21,
        "npcId": 1567,
        "levelId": 11003,
        "levelTitleTextMapHash": 2465143063,
        "LCDFHLPBNFF": 2569600809,
        "talkId": 6156706
    },
    {
        "id": 22,
        "npcId": 1567,
        "levelId": 11203,
        "levelTitleTextMapHash": 3240499487,
        "LCDFHLPBNFF": 938507921,
        "talkId": 6156707
    },
    {
        "id": 9,
        "npcId": 1435,
        "levelId": 11004,
        "levelTitleTextMapHash": 4104360535,
        "LCDFHLPBNFF": 3425165369,
        "CHONPGNANHB": 64,
        "talkId": 6143506
    },
    {
        "id": 7,
        "npcId": 1467,
        "levelId": 11104,
        "levelTitleTextMapHash": 626068815,
        "LCDFHLPBNFF": 3920867961,
        "talkId": 6146705
    },
    {
        "id": 13,
        "npcId": 1423,
        "levelId": 11106,
        "levelTitleTextMapHash": 2158987695,
        "LCDFHLPBNFF": 1375292385,
        "CHONPGNANHB": 63,
        "talkId": 6142305
    },
    {
        "id": 17,
        "npcId": 1417,
        "levelId": 11101,
        "levelTitleTextMapHash": 1544071007,
        "LCDFHLPBNFF": 899602041,
        "CHONPGNANHB": 65,
        "talkId": 6141706
    },
    {
        "id": 19,
        "npcId": 1587,
        "levelId": 11102,
        "levelTitleTextMapHash": 2188848231,
        "LCDFHLPBNFF": 2156876665,
        "CHONPGNANHB": 201,
        "talkId": 6158707
    },
    {
        "id": 27,
        "npcId": 2016,
        "levelId": 12001,
        "levelTitleTextMapHash": 288744799,
        "LCDFHLPBNFF": 66214273,
        "talkId": 6201611
    },
    {
        "id": 35,
        "npcId": 2148,
        "levelId": 12002,
        "levelTitleTextMapHash": 840672975,
        "LCDFHLPBNFF": 2152449393,
        "talkId": 6214804
    },
    {
        "id": 36,
        "npcId": 2148,
        "levelId": 12202,
        "levelTitleTextMapHash": 2418109207,
        "LCDFHLPBNFF": 3205140177,
        "talkId": 6214805
    },
    {
        "id": 31,
        "npcId": 2456,
        "levelId": 12004,
        "levelTitleTextMapHash": 2403811535,
        "LCDFHLPBNFF": 941460177,
        "talkId": 6245612
    },
    {
        "id": 32,
        "npcId": 2456,
        "levelId": 12005,
        "levelTitleTextMapHash": 1775391735,
        "LCDFHLPBNFF": 3223597569,
        "talkId": 6245613
    },
    {
        "id": 33,
        "npcId": 2010,
        "levelId": 12003,
        "levelTitleTextMapHash": 3018505327,
        "LCDFHLPBNFF": 2149626593,
        "talkId": 6201016
    },
    {
        "id": 29,
        "npcId": 2045,
        "levelId": 12104,
        "levelTitleTextMapHash": 2542362831,
        "LCDFHLPBNFF": 1244630513,
        "CHONPGNANHB": 159,
        "talkId": 6204508
    },
    {
        "id": 30,
        "npcId": 1625,
        "levelId": 12105,
        "levelTitleTextMapHash": 1859297975,
        "LCDFHLPBNFF": 42604921,
        "talkId": 6162506
    },
    {
        "id": 37,
        "npcId": 2003,
        "levelId": 12103,
        "levelTitleTextMapHash": 2492230503,
        "LCDFHLPBNFF": 2273670969,
        "talkId": 6200310
    },
    {
        "id": 25,
        "npcId": 2054,
        "levelId": 12106,
        "levelTitleTextMapHash": 1835760391,
        "LCDFHLPBNFF": 2410793313,
        "talkId": 6205407
    },
    {
        "id": 26,
        "npcId": 2054,
        "levelId": 12107,
        "levelTitleTextMapHash": 3217184255,
        "LCDFHLPBNFF": 2587753089,
        "talkId": 6205408
    },
    {
        "id": 50,
        "npcId": 3084,
        "levelId": 13005,
        "unlockCond": "GCG_LEVEL_UNLOCK_QUEST",
        "DBELNLMBANE": 2013,
        "levelTitleTextMapHash": 2043581743,
        "LCDFHLPBNFF": 1811471233,
        "talkId": 6308408
    },
    {
        "id": 51,
        "npcId": 3081,
        "levelId": 13001,
        "unlockCond": "GCG_LEVEL_UNLOCK_QUEST",
        "DBELNLMBANE": 2013,
        "levelTitleTextMapHash": 4188325103,
        "LCDFHLPBNFF": 2993657001,
        "talkId": 6308108
    },
    {
        "id": 52,
        "npcId": 3078,
        "levelId": 13002,
        "unlockCond": "GCG_LEVEL_UNLOCK_QUEST",
        "DBELNLMBANE": 2013,
        "levelTitleTextMapHash": 989703615,
        "LCDFHLPBNFF": 3553388697,
        "talkId": 6307806
    },
    {
        "id": 53,
        "npcId": 3079,
        "levelId": 13003,
        "unlockCond": "GCG_LEVEL_UNLOCK_QUEST",
        "DBELNLMBANE": 2013,
        "levelTitleTextMapHash": 1611037159,
        "LCDFHLPBNFF": 2642149393,
        "talkId": 6307908
    },
    {
        "id": 54,
        "npcId": 3082,
        "levelId": 13004,
        "unlockCond": "GCG_LEVEL_UNLOCK_QUEST",
        "DBELNLMBANE": 2013,
        "levelTitleTextMapHash": 2394429783,
        "LCDFHLPBNFF": 133004473,
        "talkId": 6308209
    },
    {
        "id": 55,
        "npcId": 3173,
        "levelId": 13102,
        "unlockCond": "GCG_LEVEL_UNLOCK_QUEST",
        "DBELNLMBANE": 2013,
        "levelTitleTextMapHash": 1051945383,
        "LCDFHLPBNFF": 3216297969,
        "talkId": 6317307
    },
    {
        "id": 56,
        "npcId": 3005,
        "levelId": 13105,
        "unlockCond": "GCG_LEVEL_UNLOCK_QUEST",
        "DBELNLMBANE": 2013,
        "levelTitleTextMapHash": 2792125391,
        "LCDFHLPBNFF": 3496464177,
        "talkId": 6300509
    },
    {
        "id": 57,
        "npcId": 3003,
        "levelId": 13101,
        "unlockCond": "GCG_LEVEL_UNLOCK_QUEST",
        "DBELNLMBANE": 2013,
        "levelTitleTextMapHash": 2056820879,
        "LCDFHLPBNFF": 3086493185,
        "CHONPGNANHB": 374,
        "talkId": 6300307
    },
    {
        "id": 58,
        "npcId": 3029,
        "levelId": 13103,
        "unlockCond": "GCG_LEVEL_UNLOCK_QUEST",
        "DBELNLMBANE": 2013,
        "levelTitleTextMapHash": 3557745911,
        "LCDFHLPBNFF": 581772937,
        "talkId": 6302908
    },
    {
        "id": 59,
        "npcId": 3042,
        "levelId": 13104,
        "unlockCond": "GCG_LEVEL_UNLOCK_QUEST",
        "DBELNLMBANE": 2013,
        "levelTitleTextMapHash": 2314449895,
        "LCDFHLPBNFF": 1832974089,
        "talkId": 6304205
    },
    {
        "id": 60,
        "npcId": 4307,
        "levelId": 14001,
        "levelTitleTextMapHash": 2935476119,
        "LCDFHLPBNFF": 3781952905,
        "talkId": 6430706
    },
    {
        "id": 61,
        "npcId": 4302,
        "levelId": 14002,
        "levelTitleTextMapHash": 3896400727,
        "LCDFHLPBNFF": 2187712057,
        "talkId": 6430206
    },
    {
        "id": 62,
        "npcId": 4310,
        "levelId": 14004,
        "levelTitleTextMapHash": 1562194695,
        "LCDFHLPBNFF": 350105585,
        "talkId": 6431006
    },
    {
        "id": 63,
        "npcId": 4309,
        "levelId": 14003,
        "levelTitleTextMapHash": 1731002271,
        "LCDFHLPBNFF": 1058182337,
        "talkId": 6430905
    },
    {
        "id": 64,
        "npcId": 4301,
        "levelId": 14005,
        "levelTitleTextMapHash": 2202310847,
        "LCDFHLPBNFF": 3986333449,
        "talkId": 6430107
    },
    {
        "id": 65,
        "npcId": 4046,
        "levelId": 14102,
        "levelTitleTextMapHash": 797512791,
        "LCDFHLPBNFF": 647151305,
        "talkId": 6404605
    },
    {
        "id": 66,
        "npcId": 4042,
        "levelId": 14101,
        "levelTitleTextMapHash": 1731784367,
        "LCDFHLPBNFF": 1102405641,
        "CHONPGNANHB": 529,
        "talkId": 6404208
    },
    {
        "id": 67,
        "npcId": 4018,
        "levelId": 14103,
        "levelTitleTextMapHash": 833342143,
        "LCDFHLPBNFF": 3969652713,
        "CHONPGNANHB": 526,
        "talkId": 6401807
    },
    {
        "id": 68,
        "npcId": 4069,
        "levelId": 14104,
        "levelTitleTextMapHash": 1305284903,
        "LCDFHLPBNFF": 3064766353,
        "talkId": 6406904
    },
    {
        "id": 69,
        "npcId": 4314,
        "levelId": 14105,
        "levelTitleTextMapHash": 3565276287,
        "LCDFHLPBNFF": 3192903329,
        "talkId": 6431407
    },
    {
        "id": 70,
        "npcId": 4170,
        "levelId": 14201,
        "levelTitleTextMapHash": 4158763263,
        "LCDFHLPBNFF": 3880345041,
        "talkId": 6417004
    },
    {
        "id": 71,
        "npcId": 4154,
        "levelId": 14202,
        "levelTitleTextMapHash": 1502751559,
        "LCDFHLPBNFF": 3302349265,
        "talkId": 6415405
    },
    {
        "id": 72,
        "npcId": 4155,
        "levelId": 14203,
        "levelTitleTextMapHash": 2291582823,
        "LCDFHLPBNFF": 534521833,
        "talkId": 6415506
    },
    {
        "id": 73,
        "npcId": 4141,
        "levelId": 14204,
        "levelTitleTextMapHash": 735275183,
        "LCDFHLPBNFF": 3078807449,
        "talkId": 6414105
    },
    {
        "id": 74,
        "npcId": 4136,
        "levelId": 14205,
        "levelTitleTextMapHash": 3089066183,
        "LCDFHLPBNFF": 1486212017,
        "talkId": 6413605
    },
    {
        "id": 75,
        "npcId": 3029,
        "levelId": 13201,
        "unlockCond": "GCG_LEVEL_UNLOCK_QUEST",
        "DBELNLMBANE": 2013,
        "levelTitleTextMapHash": 705376143,
        "LCDFHLPBNFF": 1936468097,
        "talkId": 6302911
    },
    {
        "id": 76,
        "npcId": 4057,
        "levelId": 14301,
        "levelTitleTextMapHash": 3052797943,
        "LCDFHLPBNFF": 1029910201,
        "talkId": 6405704
    },
    {
        "id": 77,
        "npcId": 4050,
        "levelId": 14302,
        "levelTitleTextMapHash": 2162256367,
        "LCDFHLPBNFF": 696878721,
        "talkId": 6405007
    },
    {
        "id": 78,
        "npcId": 4060,
        "levelId": 14303,
        "levelTitleTextMapHash": 589898751,
        "LCDFHLPBNFF": 3688892441,
        "talkId": 6406010
    }
]