[
  {
    "grid": {
      "(0, 0, 20)": [
        240653001,
        240653002
      ],
      "(0, 1, 20)": [
        240653001
      ],
      "(0, -1, 20)": [
        240653004
      ]
    }
  },
  {
    "grid": {}
  },
  {
    "grid": {
      "(0, 0, 250)": [
        240653001,
        240653004
      ]
    }
  },
  {
    "grid": {}
  },
  {
    "grid": {}
  },
  {
    "grid": {}
  }
]